<svg xmlns="http://www.w3.org/2000/svg" width="128" height="128" viewBox="0 0 128 128">
    <g fill="none" fill-rule="evenodd" transform="translate(4 4)">
        <rect width="120" height="120" stroke="#2A2A2A" stroke-width="8" rx="30"/>
        <path fill="#2A2A2A" fill-rule="nonzero" d="M59.939 30c-3.1 0-5.612 2.515-5.612 5.615v18.711H35.614c-3.1 0-5.613 2.513-5.613 5.614 0 3.1 2.514 5.614 5.613 5.614h18.713v18.713c0 3.097 2.513 5.612 5.612 5.612 3.102 0 5.614-2.514 5.614-5.612V65.554h18.712c3.1 0 5.613-2.513 5.613-5.614s-2.512-5.614-5.613-5.614H65.553V35.615c0-3.1-2.512-5.615-5.614-5.615z"/>
    </g>
</svg>
